[comment encoding = UTF-8 /]
[module GenericPomGenerator('http://cs.mcgill.ca/sel/ram/3.0')]

[import ca::mcgill::sel::ram::generator::maven::dependencyBlocks /]

[template public generateGenericPom(aspect : Aspect)]
[comment @main/]
[file ('GenericPom.xml', false, 'UTF-8')]
<?xml version="1.0" encoding="UTF-8"?>
<project xmlns="http://maven.apache.org/POM/4.0.0"
         xmlns:xsi="http://www.w3.org/2001/XMLSchema-instance"
         xsi:schemaLocation="http://maven.apache.org/POM/4.0.0 http://maven.apache.org/xsd/maven-4.0.0.xsd">

    <modelVersion>4.0.0</modelVersion>
    <groupId>[aspect.structuralView.signature.groupId/]</groupId>
    <artifactId>[aspect.structuralView.signature.artifactId/]</artifactId>
    <version>[aspect.structuralView.signature.version/]</version>
    <packaging>jar</packaging>

    <properties>
        <project.build.sourceEncoding>UTF-8</project.build.sourceEncoding>
        <maven.compiler.source>1.8</maven.compiler.source>
        <maven.compiler.target>1.8</maven.compiler.target>
    </properties>

    <dependencies>
[for (a : ArtifactSignature | aspect.structuralView.dependencies)]
    [generateMavenDependency(a)/]
[/for]
    </dependencies>
</project>
[/file]
[/template]