[comment encoding = UTF-8 /]
[module SpringBootLauncherGenerator('http://cs.mcgill.ca/sel/ram/3.0')/]

[template public SpringBootLauncherGenerator(aspect : Aspect)]
[comment @main /]
[file ('SpringBootLauncher.java', false, 'UTF-8')]
package [aspect.structuralView.signature.groupId/].[aspect.structuralView.signature.artifactId/];

import org.springframework.boot.SpringApplication;
import org.springframework.boot.autoconfigure.SpringBootApplication;

@SpringBootApplication
public class SpringBootLauncher {
    
    public static void main(String[ '[' /][ ']' /] args) {
        SpringApplication.run(SpringBootLauncher.class, args);
    }
}
[/file]
[/template]
