[comment encoding = UTF-8 /]
[module PomGeneratorJaxRSJBossRESTEasy('http://cs.mcgill.ca/sel/ram/3.0')/]

[template public PomGeneratorJaxRSJBossRESTEasy(aspect : Aspect)]
[comment @main/]
[file ('JaxRSJBossRESTEasyPom.xml', false, 'UTF-8')]
<?xml version="1.0" encoding="UTF-8"?>
<project xmlns="http://maven.apache.org/POM/4.0.0"
         xmlns:xsi="http://www.w3.org/2001/XMLSchema-instance"
         xsi:schemaLocation="http://maven.apache.org/POM/4.0.0 http://maven.apache.org/xsd/maven-4.0.0.xsd">

    <packaging>war</packaging>

    <properties>
        <resteasy.version>3.15.2.Final</resteasy.version>
    </properties>

    <dependencies>  
       <dependency>
            <groupId>org.jboss.resteasy</groupId>
            <artifactId>resteasy-servlet-initializer</artifactId>
            <version>${resteasy.version}</version>
        </dependency>

        <dependency>
            <groupId>org.jboss.resteasy</groupId>
            <artifactId>resteasy-jackson-provider</artifactId>
            <version>${resteasy.version}</version>
        </dependency>
    </dependencies>

    <build>
        <plugins>
            <plugin>
                <groupId>org.apache.maven.plugins</groupId>
                <artifactId>maven-war-plugin</artifactId>
                <version>3.3.2</version>
                <configuration>
                    <failOnMissingWebXml>false</failOnMissingWebXml>
                </configuration>
            </plugin>

            <plugin>
                <groupId>org.eclipse.jetty</groupId>
                <artifactId>jetty-maven-plugin</artifactId>
                <version>9.4.43.v20210629</version>
            </plugin>
        </plugins>
    </build>
</project>
[/file]
[/template]
