[comment encoding = UTF-8 /]
[module formattingHelpers('http://www.eclipse.org/emf/2002/Ecore', 'http://cs.mcgill.ca/sel/uc/1.0')]

[**
 * Queries to determine if a given generation is for rich text or plain text.
*/]
[query public isRichText(flags: String) : Boolean = 
flags.contains('RICH')
/]

[**
 * Generates a formatted label.
 * @param str: The text of the label
 * @param isRichText: Flag for rich text formatting
*/]
[template public label(str: String, isRichText: Boolean) post(trim())] 
[if isRichText][bold(str)/]
[else][str/][/if]
[/template]

[**
 * Gets the name of the file to save.
 * @param uc: The use case
 * @param isRichText: Flag for rich text formatting
*/]
[template public getFileName(uc: UseCase, isRichText: Boolean) post(trim())]
[uc.name/][if isRichText].rtf[else].txt[/if]
[/template]

[**
 * Gets the EOL token.
 * @param isRichText: Flag for rich text formatting
*/]
[template public lineEnding(isRichText: Boolean) post(trim())]
[if isRichText]\par
[else][/if]
[/template]

[**
 * Bolds text
 * @param str: The text
*/]
[template public bold(text: String) post(trim())]
{\b [text/]}
[/template]

[**
 * Italicizes text
 * @param str: The text
*/]
[template public italic(text: String) post(trim())]
{\i [text/]}
[/template]

[**
 * Underlines text
 * @param str: The text
*/]
[template public underline(text: String) post(trim())]
{\ul [text/]}
[/template]